{
  "type": "service_account",
  "project_id": "sample-appnomic",
  "private_key_id": "bf25672d545617673d74b276dd173da4d4593d10",
  "private_key": "-----BEGIN PRIVATE KEY-----\nMIIEvQIBADANBgkqhkiG9w0BAQEFAASCBKcwggSjAgEAAoIBAQC/oEZuJutWjqJ8\nrH7alsCEXc8j97FWViL+G2XqVaES9ghfuVYW3ECSXsSJUvCiuuuteNbBKrDauTTe\nTdUG+24rT9jbAUkkSnwnWlLJp1Riswqqar+xvlGIEmzPPQ9hvnwBfTZtBleAyxSR\ncYWSMeZyqyZcfo4vKR4F4s8nQ3XSFAozbMvOG7sjXg0oYcxBmHv3vmRoESencBj9\nsClipMhpFtzPFSvA477iGO/ctEPNpPVDkfeZ0Jcz5QcsYkfD/RgSznEZOEPQa3IM\ndQkqiX/FwZ1hZRluZK6r4+n3mgmJAvu8rKXjOf78Pk38aiUC/EWpPBJfXg84/jKK\nwO8ap/EpAgMBAAECggEABxHA32nwpywSawKLGIHUvt1eGa/W2z5IwrKcjylTDKnG\nc8+Y0TWVbUDxQ7arWXmHXco2NACg7yTDgksBR6VpclAbCjNRMTVNQL9oi/dwGccM\npu5SvZotlFVHrdqNEXhPR1fI9Ps1qbL0QoxbVuIf5A2T1/g0QyGjcailJ0fqFhKm\nWCFe39CRyvlxskK5Yt8oLI5/xjMNoDRy4fV1cnkho34G3fFqCgaHUpZAKSxS9Rmi\nC2W5tKge9G0IuD+UlHwh4EOxENFUqfIcOKb4ua6wPOriS9RVTqyk1wUOnCLMIQcm\ngubrj3eBEXjBgbRlyZKkH83QcDd+l7oOwAj8o6DwfQKBgQDiUYs97KHcQ9SLS5hY\nD15Rp/qO4R7jIbp4Db3X8m+CSBEYx7qVcO+oGl2EJt3s8ScDd1Bh4eUgQY0Lsy+K\nbdVpYfUVRA34ip2DTkbVCpwsb3VfR2GSkzB/st6q3ko0ZPcExGpfKFuaJZR40jS5\n/gcZm8s30QsXMxQEgs3Xsi9WzQKBgQDYwfX9QCsbuaHXqM53wnZoft1lezYoVHc6\nPXGS2udpRO0OjCevfhXGqsPkRE4h+wDar4G2gHtLsDGwowRT7CtnLWn18fn8kmic\nXTlBQ7LHxXZw5zPSWbahamE4FxJW0FDxlzKHs5UXoCAiJXsCx7YtTW1wlvXxnsSs\nSZKB1dcrzQKBgDzSp3ZL+zAkNqH8/gNklfeiCm+NxuxJ60BKiSPZLui3j4i2XMm+\n4VmvRES44VnFcbO3xC2aNSbXFx322Sb936YDwocllA+gyTY5ukWVJWW3yraBi5KF\n5jnbi4YmWZD9NXndg6zxPrUNtnpGHA+EWsoiGZp1nuJsQsv3j3SRmbFdAoGBAK9t\no5o4werpfXveSmQQxeZirurAIp/XZLuFGRNjCaFgQH/inQfigttMP8jSI25LCHD1\nVIURTTh/vGeaOBl37dTOo5CDK/DnybSrmnggw2P9g5Ny+7UGGNJhF5fezF/or2oo\nFaRQip0ZYohgT0N7wQy/OpDCDQFlnwVVcjaUjFYNAoGAeLf5squGrsGdoF5SFTbX\nX74K5Ry5ysPC5i+K9IxL0p/QgaCG0w28G36nGbCg0jj6F+lHBck0mCDW5YmNiOX7\nd8s8oiJ/DyFSRLYQSCYonMjbHD2umPW4LINaY89dXZFs0mndyYzu+TMsqhtX3XZX\nRt2b+TnZyP9NCFQyl5LR8HE=\n-----END PRIVATE KEY-----\n",
  "client_email": "firebase-admin-appnomic-sample@sample-appnomic.iam.gserviceaccount.com",
  "client_id": "100585095935598224748",
  "auth_uri": "https://accounts.google.com/o/oauth2/auth",
  "token_uri": "https://oauth2.googleapis.com/token",
  "auth_provider_x509_cert_url": "https://www.googleapis.com/oauth2/v1/certs",
  "client_x509_cert_url": "https://www.googleapis.com/robot/v1/metadata/x509/firebase-admin-appnomic-sample%40sample-appnomic.iam.gserviceaccount.com"
}